…
``` r
xgb_grid <- grid_latin_hypercube(
  tree_depth(),
  min_n(),
  loss_reduction(),
  sample_size = sample_prop(),
  finalize(mtry(), mgus_train),
  learn_rate(),
  size = 30
)

xgb_grid
```

    ## # A tibble: 30 x 6
    ##    tree_depth min_n loss_reduction sample_size  mtry learn_rate
    ##         <int> <int>          <dbl>       <dbl> <int>      <dbl>
    ##  1          9    30       3.08e-10       0.236     3   9.73e- 2
    ##  2         11    27       1.18e- 1       0.501     4   2.03e- 5
    ##  3         10    14       9.57e- 1       0.778     6   1.80e- 8
    ##  4          9    21       3.19e- 4       0.748     2   5.07e-10
    ##  5          6    10       1.06e- 9       0.936     3   7.80e- 5
    ##  6         12    39       3.15e+ 1       0.666     2   4.17e- 6
    ##  7         10     3       6.22e- 2       0.954     4   8.32e- 7
    ##  8         14     6       9.35e- 4       0.546     6   9.80e- 9
    ##  9          4    32       2.34e- 5       0.400     7   2.12e- 9
    ## 10          8    38       1.12e- 6       0.797     2   2.59e- 5
    ## # … with 20 more rows
…
